<svg xmlns="http://www.w3.org/2000/svg" xmlns:xlink="http://www.w3.org/1999/xlink" width="30" height="30" viewBox="0 0 30 30">
  <defs>
    <clipPath id="clip-gif">
      <rect width="30" height="30"/>
    </clipPath>
  </defs>
  <g id="gif" clip-path="url(#clip-gif)">
    <g id="gif-2" data-name="gif" transform="translate(2.75 2.98)">
      <path id="Path_36" data-name="Path 36" d="M19,10.5V8.8H14.6v6.4h1.7v-2h2V11.5h-2v-1H19ZM11.7,8.8h1.7v6.4H11.7ZM8.1,10.4a1.845,1.845,0,0,1,1.2.5l1.2-1A3.194,3.194,0,0,0,8.1,8.8a3.2,3.2,0,1,0,0,6.4,3.043,3.043,0,0,0,2.4-1.1V11.6H7.7v1.2H8.9v.6a1.884,1.884,0,0,1-.8.2A1.58,1.58,0,0,1,6.5,12a1.645,1.645,0,0,1,1.6-1.6Z" fill="#1da1f2"/>
      <path id="Path_37" data-name="Path 37" d="M20.5,2.02H3.5A2.251,2.251,0,0,0,1.25,4.267V19.774A2.251,2.251,0,0,0,3.5,22.02h17a2.251,2.251,0,0,0,2.25-2.246V4.267A2.251,2.251,0,0,0,20.5,2.02Zm.75,17.754a.749.749,0,0,1-.75.746H3.5a.749.749,0,0,1-.75-.746V4.267A.749.749,0,0,1,3.5,3.52h17a.749.749,0,0,1,.75.747Z" fill="#1da1f2"/>
    </g>
  </g>
</svg>
