<svg xmlns="http://www.w3.org/2000/svg" xmlns:xlink="http://www.w3.org/1999/xlink" width="30" height="30" viewBox="0 0 30 30">
  <defs>
    <clipPath id="clip-photo">
      <rect width="30" height="30"/>
    </clipPath>
  </defs>
  <g id="photo" clip-path="url(#clip-photo)">
    <g id="photo-2" data-name="photo" transform="translate(3 3)">
      <path id="Path_39" data-name="Path 39" d="M19.75,2H4.25A2.253,2.253,0,0,0,2,4.25v15.5A2.253,2.253,0,0,0,4.25,22h15.5A2.253,2.253,0,0,0,22,19.75V4.25A2.253,2.253,0,0,0,19.75,2ZM4.25,3.5h15.5a.752.752,0,0,1,.75.75v9.676l-3.858-3.858a.749.749,0,0,0-.53-.22h0a.74.74,0,0,0-.532.224L11.26,14.456,9.447,12.65a.749.749,0,0,0-.53-.22.647.647,0,0,0-.535.227L3.5,17.642V4.25A.752.752,0,0,1,4.25,3.5ZM3.506,19.78l5.418-5.534L15.206,20.5H4.25A.749.749,0,0,1,3.506,19.78Zm16.244.72H17.33l-5.007-4.987,3.792-3.85L20.5,16.047v3.7A.752.752,0,0,1,19.75,20.5Z" fill="#1da1f2"/>
      <circle id="Ellipse_78" data-name="Ellipse 78" cx="1.542" cy="1.542" r="1.542" transform="translate(7.326 6.767)" fill="#1da1f2"/>
    </g>
  </g>
</svg>
