<svg xmlns="http://www.w3.org/2000/svg" xmlns:xlink="http://www.w3.org/1999/xlink" width="30" height="30" viewBox="0 0 30 30">
  <defs>
    <clipPath id="clip-progress">
      <rect width="30" height="30"/>
    </clipPath>
  </defs>
  <g id="progress" clip-path="url(#clip-progress)">
    <g id="Ellipse_75" data-name="Ellipse 75" transform="translate(5 5)" fill="none" stroke="#c6d0d8" stroke-width="2">
      <circle cx="10" cy="10" r="10" stroke="none"/>
      <circle cx="10" cy="10" r="9" fill="none"/>
    </g>
  </g>
</svg>
