<svg xmlns="http://www.w3.org/2000/svg" xmlns:xlink="http://www.w3.org/1999/xlink" width="260" height="54" viewBox="0 0 260 54">
  <defs>
    <clipPath id="clip-coding-for-designers-promo">
      <rect width="260" height="54"/>
    </clipPath>
  </defs>
  <g id="coding-for-designers-promo" clip-path="url(#clip-coding-for-designers-promo)">
    <path id="Path_36" data-name="Path 36" d="M8.984-3.016a.544.544,0,0,1,.192.036.522.522,0,0,1,.184.124l1.072,1.128A4.45,4.45,0,0,1,8.668-.34,6.173,6.173,0,0,1,6.16.128,5.975,5.975,0,0,1,3.78-.324,5.151,5.151,0,0,1,2-1.572,5.5,5.5,0,0,1,.872-3.46,6.972,6.972,0,0,1,.48-5.832,6.566,6.566,0,0,1,.9-8.228,5.564,5.564,0,0,1,2.1-10.112a5.368,5.368,0,0,1,1.84-1.232,6.158,6.158,0,0,1,2.36-.44,6.3,6.3,0,0,1,1.236.116,6.041,6.041,0,0,1,1.084.32,4.952,4.952,0,0,1,.928.492,4.87,4.87,0,0,1,.752.624L9.384-9.008a1.161,1.161,0,0,1-.208.2.541.541,0,0,1-.336.092.6.6,0,0,1-.272-.064A3.007,3.007,0,0,1,8.3-8.932l-.316-.2a2.425,2.425,0,0,0-.408-.2,3.372,3.372,0,0,0-.552-.156,3.767,3.767,0,0,0-.74-.064A2.981,2.981,0,0,0,5.052-9.3a2.677,2.677,0,0,0-.96.724,3.348,3.348,0,0,0-.624,1.168,5.212,5.212,0,0,0-.22,1.58A4.8,4.8,0,0,0,3.492-4.24a3.5,3.5,0,0,0,.664,1.172,2.818,2.818,0,0,0,.98.724,2.93,2.93,0,0,0,1.2.248,5.744,5.744,0,0,0,.672-.036,3.056,3.056,0,0,0,.568-.12,2.314,2.314,0,0,0,.5-.224,3.129,3.129,0,0,0,.472-.356.946.946,0,0,1,.208-.132A.545.545,0,0,1,8.984-3.016Zm13.8-2.816a6.264,6.264,0,0,1-.436,2.352A5.669,5.669,0,0,1,21.12-1.588a5.631,5.631,0,0,1-1.908,1.26,6.488,6.488,0,0,1-2.476.456,6.519,6.519,0,0,1-2.48-.456,5.666,5.666,0,0,1-1.916-1.26A5.638,5.638,0,0,1,11.108-3.48a6.264,6.264,0,0,1-.436-2.352,6.264,6.264,0,0,1,.436-2.352,5.6,5.6,0,0,1,1.232-1.888,5.7,5.7,0,0,1,1.916-1.256,6.519,6.519,0,0,1,2.48-.456,6.439,6.439,0,0,1,2.476.46,5.711,5.711,0,0,1,1.908,1.26,5.625,5.625,0,0,1,1.228,1.888A6.243,6.243,0,0,1,22.784-5.832Zm-2.768,0a5.04,5.04,0,0,0-.224-1.556,3.3,3.3,0,0,0-.644-1.172A2.777,2.777,0,0,0,18.12-9.3a3.538,3.538,0,0,0-1.384-.256,3.59,3.59,0,0,0-1.4.256,2.77,2.77,0,0,0-1.032.736,3.3,3.3,0,0,0-.644,1.172,5.04,5.04,0,0,0-.224,1.556,5.068,5.068,0,0,0,.224,1.564A3.3,3.3,0,0,0,14.308-3.1a2.731,2.731,0,0,0,1.032.732,3.64,3.64,0,0,0,1.4.252,3.587,3.587,0,0,0,1.384-.252A2.738,2.738,0,0,0,19.148-3.1a3.3,3.3,0,0,0,.644-1.172A5.068,5.068,0,0,0,20.016-5.832Zm14.936,0A6.112,6.112,0,0,1,34.516-3.5a5.456,5.456,0,0,1-1.228,1.848A5.57,5.57,0,0,1,31.38-.436,6.752,6.752,0,0,1,28.9,0H24.376V-11.656H28.9a6.7,6.7,0,0,1,2.476.44A5.65,5.65,0,0,1,33.288-10a5.413,5.413,0,0,1,1.228,1.844A6.09,6.09,0,0,1,34.952-5.832Zm-2.768,0a5.078,5.078,0,0,0-.224-1.56,3.333,3.333,0,0,0-.644-1.18,2.8,2.8,0,0,0-1.028-.744,3.49,3.49,0,0,0-1.384-.26H27.1v7.5H28.9a3.49,3.49,0,0,0,1.384-.26,2.8,2.8,0,0,0,1.028-.744,3.333,3.333,0,0,0,.644-1.18A5.107,5.107,0,0,0,32.184-5.832ZM39.272,0h-2.72V-11.656h2.72ZM51.7-11.656V0H50.3a1.224,1.224,0,0,1-.524-.1,1.282,1.282,0,0,1-.42-.348L43.856-7.4q.032.312.044.6t.012.548V0H41.528V-11.656h1.424a2.3,2.3,0,0,1,.3.016.756.756,0,0,1,.216.06.721.721,0,0,1,.184.124,2.1,2.1,0,0,1,.2.216l5.544,7q-.04-.336-.056-.652t-.016-.6v-6.168ZM59.56-6.04H63.7v4.92A6.126,6.126,0,0,1,61.8-.168a7.5,7.5,0,0,1-2.116.3,7.272,7.272,0,0,1-2.62-.452,6.036,6.036,0,0,1-2.02-1.248,5.477,5.477,0,0,1-1.3-1.888,6.094,6.094,0,0,1-.456-2.372,6.458,6.458,0,0,1,.432-2.4,5.4,5.4,0,0,1,1.236-1.884A5.608,5.608,0,0,1,56.9-11.344a7.027,7.027,0,0,1,2.548-.44,7.421,7.421,0,0,1,1.368.12,6.73,6.73,0,0,1,1.18.328,5.431,5.431,0,0,1,.988.5,5.322,5.322,0,0,1,.8.624L63-9.024a.753.753,0,0,1-.476.344.84.84,0,0,1-.628-.144q-.32-.192-.6-.332a3.686,3.686,0,0,0-.58-.228,3.8,3.8,0,0,0-.624-.128,6.123,6.123,0,0,0-.736-.04,3.357,3.357,0,0,0-1.368.268,2.933,2.933,0,0,0-1.036.756,3.419,3.419,0,0,0-.66,1.172,4.724,4.724,0,0,0-.232,1.524,4.905,4.905,0,0,0,.256,1.648,3.409,3.409,0,0,0,.724,1.216,3.1,3.1,0,0,0,1.12.756,3.866,3.866,0,0,0,1.444.26,3.757,3.757,0,0,0,.884-.1,4.942,4.942,0,0,0,.772-.256V-4.072H60.1a.559.559,0,0,1-.4-.136.453.453,0,0,1-.144-.344ZM70.012-4.788v1.476H72v1.044H70.012V0h-1.36V-5.828H72.4v1.04Zm8.84,1.872a3.132,3.132,0,0,1-.218,1.176,2.834,2.834,0,0,1-.614.946,2.816,2.816,0,0,1-.954.63,3.244,3.244,0,0,1-1.238.228,3.259,3.259,0,0,1-1.24-.228,2.833,2.833,0,0,1-.958-.63,2.819,2.819,0,0,1-.616-.946A3.132,3.132,0,0,1,72.8-2.916a3.132,3.132,0,0,1,.218-1.176,2.8,2.8,0,0,1,.616-.944,2.848,2.848,0,0,1,.958-.628,3.259,3.259,0,0,1,1.24-.228,3.219,3.219,0,0,1,1.238.23,2.855,2.855,0,0,1,.954.63,2.812,2.812,0,0,1,.614.944A3.121,3.121,0,0,1,78.852-2.916Zm-1.384,0a2.52,2.52,0,0,0-.112-.778,1.648,1.648,0,0,0-.322-.586,1.389,1.389,0,0,0-.514-.368,1.769,1.769,0,0,0-.692-.128,1.8,1.8,0,0,0-.7.128,1.385,1.385,0,0,0-.516.368,1.648,1.648,0,0,0-.322.586,2.52,2.52,0,0,0-.112.778,2.534,2.534,0,0,0,.112.782,1.648,1.648,0,0,0,.322.586,1.366,1.366,0,0,0,.516.366,1.82,1.82,0,0,0,.7.126,1.794,1.794,0,0,0,.692-.126,1.369,1.369,0,0,0,.514-.366,1.648,1.648,0,0,0,.322-.586A2.534,2.534,0,0,0,77.468-2.916Zm4.076-.172a1.391,1.391,0,0,0,.47-.07.849.849,0,0,0,.318-.194.739.739,0,0,0,.18-.29A1.113,1.113,0,0,0,82.568-4a.751.751,0,0,0-.25-.6,1.164,1.164,0,0,0-.774-.216H81v1.728ZM84.416,0H83.192A.519.519,0,0,1,82.7-.256l-.968-1.692a.469.469,0,0,0-.152-.158.473.473,0,0,0-.24-.05H81V0H79.648V-5.828h1.9a3.891,3.891,0,0,1,1.078.13,2.024,2.024,0,0,1,.728.362,1.37,1.37,0,0,1,.41.548,1.815,1.815,0,0,1,.128.688,1.847,1.847,0,0,1-.076.536,1.653,1.653,0,0,1-.224.466,1.709,1.709,0,0,1-.366.382,1.954,1.954,0,0,1-.5.276,1.223,1.223,0,0,1,.248.17,1.19,1.19,0,0,1,.208.242ZM11.7,10.168a6.112,6.112,0,0,1-.436,2.332,5.456,5.456,0,0,1-1.228,1.848,5.57,5.57,0,0,1-1.908,1.216A6.752,6.752,0,0,1,5.656,16H1.128V4.344H5.656a6.7,6.7,0,0,1,2.476.44A5.65,5.65,0,0,1,10.04,6a5.413,5.413,0,0,1,1.228,1.844A6.09,6.09,0,0,1,11.7,10.168Zm-2.768,0a5.078,5.078,0,0,0-.224-1.56,3.333,3.333,0,0,0-.644-1.18A2.8,2.8,0,0,0,7.04,6.684a3.49,3.49,0,0,0-1.384-.26H3.848v7.5H5.656a3.49,3.49,0,0,0,1.384-.26,2.8,2.8,0,0,0,1.028-.744,3.333,3.333,0,0,0,.644-1.18A5.107,5.107,0,0,0,8.936,10.168Zm7.088-3.744v2.72h3.664v2H16.024V13.92h4.784V16H13.3V4.344h7.5v2.08Zm12.888.288A1.016,1.016,0,0,1,28.66,7a.564.564,0,0,1-.34.1.832.832,0,0,1-.4-.116l-.48-.26a3.983,3.983,0,0,0-.612-.26,2.449,2.449,0,0,0-.784-.116,1.687,1.687,0,0,0-1.132.324,1.1,1.1,0,0,0-.372.876.807.807,0,0,0,.224.584,1.931,1.931,0,0,0,.588.4,6.3,6.3,0,0,0,.832.308q.468.14.956.312a8.549,8.549,0,0,1,.956.4,3.188,3.188,0,0,1,.832.592,2.763,2.763,0,0,1,.588.876,3.115,3.115,0,0,1,.224,1.244,4.054,4.054,0,0,1-.28,1.512A3.54,3.54,0,0,1,28.652,15a3.769,3.769,0,0,1-1.312.824,4.909,4.909,0,0,1-1.772.3,5.68,5.68,0,0,1-1.108-.112,6.58,6.58,0,0,1-1.092-.316,6.332,6.332,0,0,1-.992-.484,4.215,4.215,0,0,1-.808-.624l.8-1.264a.8.8,0,0,1,.252-.228.657.657,0,0,1,.34-.092.911.911,0,0,1,.484.152q.244.152.552.336a4.492,4.492,0,0,0,.708.336,2.655,2.655,0,0,0,.944.152,1.8,1.8,0,0,0,1.144-.324,1.234,1.234,0,0,0,.408-1.028.972.972,0,0,0-.224-.664,1.731,1.731,0,0,0-.588-.424,5.418,5.418,0,0,0-.828-.3q-.464-.128-.952-.284a6.965,6.965,0,0,1-.952-.384,3,3,0,0,1-.828-.6,2.808,2.808,0,0,1-.588-.928,3.685,3.685,0,0,1-.224-1.372A3.255,3.255,0,0,1,22.28,6.4a3.3,3.3,0,0,1,.776-1.112,3.816,3.816,0,0,1,1.256-.78,4.639,4.639,0,0,1,1.7-.292A6.39,6.39,0,0,1,27.06,4.3a5.488,5.488,0,0,1,.964.248,5.294,5.294,0,0,1,.852.392,3.928,3.928,0,0,1,.708.516ZM34.056,16h-2.72V4.344h2.72Zm7.856-6.04h4.144v4.92a6.126,6.126,0,0,1-1.908.952,7.5,7.5,0,0,1-2.116.3,7.272,7.272,0,0,1-2.62-.452,6.036,6.036,0,0,1-2.02-1.248,5.477,5.477,0,0,1-1.3-1.888,6.094,6.094,0,0,1-.456-2.372,6.458,6.458,0,0,1,.432-2.4,5.4,5.4,0,0,1,1.236-1.884,5.608,5.608,0,0,1,1.944-1.232,7.027,7.027,0,0,1,2.548-.44,7.421,7.421,0,0,1,1.368.12,6.73,6.73,0,0,1,1.18.328,5.431,5.431,0,0,1,.988.5,5.322,5.322,0,0,1,.8.624l-.784,1.192a.753.753,0,0,1-.476.344.84.84,0,0,1-.628-.144q-.32-.192-.6-.332a3.686,3.686,0,0,0-.58-.228,3.8,3.8,0,0,0-.624-.128,6.124,6.124,0,0,0-.736-.04,3.357,3.357,0,0,0-1.368.268,2.933,2.933,0,0,0-1.036.756,3.419,3.419,0,0,0-.66,1.172,4.724,4.724,0,0,0-.232,1.524,4.905,4.905,0,0,0,.256,1.648,3.409,3.409,0,0,0,.724,1.216,3.1,3.1,0,0,0,1.12.756,3.866,3.866,0,0,0,1.444.26,3.757,3.757,0,0,0,.884-.1,4.942,4.942,0,0,0,.772-.256V11.928H42.456a.559.559,0,0,1-.4-.136.453.453,0,0,1-.144-.344ZM58.048,4.344V16H56.64a1.224,1.224,0,0,1-.524-.1,1.282,1.282,0,0,1-.42-.348L50.2,8.6q.032.312.044.6t.012.548V16H47.872V4.344H49.3a2.3,2.3,0,0,1,.3.016.756.756,0,0,1,.216.06.721.721,0,0,1,.184.124,2.1,2.1,0,0,1,.2.216l5.544,7q-.04-.336-.056-.652t-.016-.6V4.344Zm4.976,2.08v2.72h3.664v2H63.024V13.92h4.784V16H60.3V4.344h7.5v2.08Zm10.24,3.4a2.782,2.782,0,0,0,.94-.14A1.7,1.7,0,0,0,74.84,9.3a1.478,1.478,0,0,0,.36-.58A2.226,2.226,0,0,0,75.312,8a1.5,1.5,0,0,0-.5-1.2,2.327,2.327,0,0,0-1.548-.432H72.176V9.824ZM79.008,16H76.56a1.039,1.039,0,0,1-.976-.512L73.648,12.1a.787.787,0,0,0-.784-.416h-.688V16h-2.7V4.344h3.792a7.782,7.782,0,0,1,2.156.26,4.048,4.048,0,0,1,1.456.724,2.74,2.74,0,0,1,.82,1.1A3.631,3.631,0,0,1,77.952,7.8,3.694,3.694,0,0,1,77.8,8.872a3.306,3.306,0,0,1-.448.932,3.418,3.418,0,0,1-.732.764,3.908,3.908,0,0,1-1,.552,2.446,2.446,0,0,1,.5.34,2.379,2.379,0,0,1,.416.484Zm7.424-9.288A1.016,1.016,0,0,1,86.18,7a.564.564,0,0,1-.34.1.832.832,0,0,1-.4-.116l-.48-.26a3.983,3.983,0,0,0-.612-.26,2.449,2.449,0,0,0-.784-.116,1.687,1.687,0,0,0-1.132.324,1.1,1.1,0,0,0-.372.876.807.807,0,0,0,.224.584,1.931,1.931,0,0,0,.588.4,6.3,6.3,0,0,0,.832.308q.468.14.956.312a8.549,8.549,0,0,1,.956.4,3.188,3.188,0,0,1,.832.592,2.763,2.763,0,0,1,.588.876,3.115,3.115,0,0,1,.224,1.244,4.053,4.053,0,0,1-.28,1.512A3.54,3.54,0,0,1,86.172,15a3.769,3.769,0,0,1-1.312.824,4.909,4.909,0,0,1-1.772.3,5.68,5.68,0,0,1-1.108-.112,6.58,6.58,0,0,1-1.092-.316,6.333,6.333,0,0,1-.992-.484,4.215,4.215,0,0,1-.808-.624l.8-1.264a.8.8,0,0,1,.252-.228.657.657,0,0,1,.34-.092.911.911,0,0,1,.484.152q.244.152.552.336a4.492,4.492,0,0,0,.708.336,2.655,2.655,0,0,0,.944.152,1.8,1.8,0,0,0,1.144-.324,1.234,1.234,0,0,0,.408-1.028.972.972,0,0,0-.224-.664,1.731,1.731,0,0,0-.588-.424,5.418,5.418,0,0,0-.828-.3q-.464-.128-.952-.284a6.965,6.965,0,0,1-.952-.384,3,3,0,0,1-.828-.6,2.808,2.808,0,0,1-.588-.928,3.685,3.685,0,0,1-.224-1.372A3.255,3.255,0,0,1,79.8,6.4a3.3,3.3,0,0,1,.776-1.112,3.816,3.816,0,0,1,1.256-.78,4.639,4.639,0,0,1,1.7-.292A6.39,6.39,0,0,1,84.58,4.3a5.488,5.488,0,0,1,.964.248,5.294,5.294,0,0,1,.852.392,3.928,3.928,0,0,1,.708.516Z" transform="translate(11 25)" fill="#272822"/>
    <g id="Group_6" data-name="Group 6" transform="translate(8)">
      <rect id="Rectangle_5" data-name="Rectangle 5" width="116" height="32" transform="translate(125 11)" fill="#272822"/>
    </g>
    <path id="Path_37" data-name="Path 37" d="M-6.787-2.9a1.966,1.966,0,0,1-.67-.115,1.633,1.633,0,0,1-.565-.342,1.65,1.65,0,0,1-.39-.562,1.95,1.95,0,0,1-.145-.78,2.482,2.482,0,0,1,.21-1.015,2.59,2.59,0,0,1,.58-.83,2.734,2.734,0,0,1,.875-.56,2.884,2.884,0,0,1,1.1-.2,2.47,2.47,0,0,1,.9.153,1.877,1.877,0,0,1,.668.427,1.831,1.831,0,0,1,.415.655,2.361,2.361,0,0,1,.142.835,3.133,3.133,0,0,1-.077.712,3.361,3.361,0,0,1-.22.643,4.018,4.018,0,0,1-.352.612q-.21.3-.47.618L-6.757-.275a.812.812,0,0,1-.267.2A.865.865,0,0,1-7.4,0H-8.5l2.585-2.81q.1-.11.193-.215t.177-.21a2.212,2.212,0,0,1-.59.255A2.5,2.5,0,0,1-6.787-2.9Zm1.98-2.33a1.223,1.223,0,0,0-.082-.46.99.99,0,0,0-.23-.347,1.015,1.015,0,0,0-.355-.22,1.3,1.3,0,0,0-.457-.077,1.448,1.448,0,0,0-.57.11,1.334,1.334,0,0,0-.448.3,1.383,1.383,0,0,0-.292.468,1.634,1.634,0,0,0-.105.592,1.056,1.056,0,0,0,.278.785,1.1,1.1,0,0,0,.808.275,1.59,1.59,0,0,0,.605-.11A1.338,1.338,0,0,0-5.2-4.21a1.327,1.327,0,0,0,.29-.455A1.547,1.547,0,0,0-4.807-5.225Zm4.82-2.08a2.47,2.47,0,0,1,.822.128,1.819,1.819,0,0,1,.615.353,1.507,1.507,0,0,1,.385.53,1.638,1.638,0,0,1,.133.66,2.313,2.313,0,0,1-.093.69,1.546,1.546,0,0,1-.267.512,1.491,1.491,0,0,1-.43.363,2.541,2.541,0,0,1-.58.235,1.649,1.649,0,0,1,.835.567,1.5,1.5,0,0,1,.275.908A2.3,2.3,0,0,1,1.48-1.32a2.289,2.289,0,0,1-.61.765,2.733,2.733,0,0,1-.878.473A3.3,3.3,0,0,1-1.042.08a3.2,3.2,0,0,1-.9-.113A1.785,1.785,0,0,1-2.6-.38a1.8,1.8,0,0,1-.452-.595,3.444,3.444,0,0,1-.27-.85l.555-.215a.768.768,0,0,1,.285-.06.433.433,0,0,1,.218.05.268.268,0,0,1,.122.15,2.233,2.233,0,0,0,.185.433,1.135,1.135,0,0,0,.25.3.962.962,0,0,0,.335.183,1.463,1.463,0,0,0,.44.06,1.5,1.5,0,0,0,.615-.12,1.385,1.385,0,0,0,.455-.318A1.372,1.372,0,0,0,.42-1.81a1.458,1.458,0,0,0,.1-.525,1.062,1.062,0,0,0-.065-.378.632.632,0,0,0-.24-.3A1.408,1.408,0,0,0-.267-3.2a3.491,3.491,0,0,0-.785-.072l.115-.85a3.108,3.108,0,0,0,.793-.088,1.427,1.427,0,0,0,.533-.253.961.961,0,0,0,.3-.4,1.432,1.432,0,0,0,.092-.532A.858.858,0,0,0,.52-6.07a1.009,1.009,0,0,0-.7-.23,1.3,1.3,0,0,0-.788.24,1.446,1.446,0,0,0-.487.624.574.574,0,0,1-.19.265.47.47,0,0,1-.275.08,1,1,0,0,1-.16-.015l-.61-.108a3.014,3.014,0,0,1,.395-.908,2.591,2.591,0,0,1,.613-.655,2.563,2.563,0,0,1,.783-.4A3.072,3.072,0,0,1,.013-7.305ZM5.858-5.75a2.279,2.279,0,0,1-.155.863,2.064,2.064,0,0,1-.408.65,1.769,1.769,0,0,1-.575.41,1.612,1.612,0,0,1-.657.142,1.378,1.378,0,0,1-.55-.108A1.172,1.172,0,0,1,3.087-4.1a1.433,1.433,0,0,1-.273-.482,1.93,1.93,0,0,1-.1-.633,2.5,2.5,0,0,1,.14-.86A1.98,1.98,0,0,1,3.24-6.73a1.693,1.693,0,0,1,.57-.418,1.679,1.679,0,0,1,.7-.148,1.378,1.378,0,0,1,.55.108,1.182,1.182,0,0,1,.428.31,1.434,1.434,0,0,1,.275.488A1.97,1.97,0,0,1,5.858-5.75Zm-.925.005a.954.954,0,0,0-.148-.6.462.462,0,0,0-.372-.18.668.668,0,0,0-.307.073.66.66,0,0,0-.248.23,1.23,1.23,0,0,0-.163.405,2.7,2.7,0,0,0-.057.6,1.415,1.415,0,0,0,.037.35.64.64,0,0,0,.108.235.41.41,0,0,0,.165.13.536.536,0,0,0,.21.04.7.7,0,0,0,.3-.068.63.63,0,0,0,.247-.22,1.2,1.2,0,0,0,.165-.4A2.563,2.563,0,0,0,4.932-5.745Zm3.285-1.29a.992.992,0,0,1,.163-.13.45.45,0,0,1,.248-.06h.865L3.662-.18a.509.509,0,0,1-.16.13A.477.477,0,0,1,3.277,0H2.4Zm.95,5.06a2.279,2.279,0,0,1-.155.862,2.089,2.089,0,0,1-.4.65,1.734,1.734,0,0,1-.575.41,1.629,1.629,0,0,1-.66.143,1.351,1.351,0,0,1-.55-.11A1.212,1.212,0,0,1,6.4-.328a1.405,1.405,0,0,1-.273-.48,1.914,1.914,0,0,1-.1-.627,2.54,2.54,0,0,1,.14-.868A1.975,1.975,0,0,1,6.55-2.96a1.693,1.693,0,0,1,.57-.418,1.679,1.679,0,0,1,.7-.148,1.351,1.351,0,0,1,.55.11A1.208,1.208,0,0,1,8.8-3.1a1.434,1.434,0,0,1,.275.488A1.97,1.97,0,0,1,9.167-1.975Zm-.92,0a.931.931,0,0,0-.15-.6.471.471,0,0,0-.375-.178.668.668,0,0,0-.307.072.66.66,0,0,0-.247.23,1.23,1.23,0,0,0-.163.4,2.7,2.7,0,0,0-.057.6.913.913,0,0,0,.145.58.464.464,0,0,0,.375.175.709.709,0,0,0,.307-.067.63.63,0,0,0,.248-.22,1.2,1.2,0,0,0,.165-.4A2.6,2.6,0,0,0,8.247-1.97ZM-20.838,10.98a2.631,2.631,0,0,0,.533-.047,1.941,1.941,0,0,0,.4-.123,1.825,1.825,0,0,0,.287-.157q.12-.083.21-.158t.16-.123a.248.248,0,0,1,.14-.047.185.185,0,0,1,.1.025.367.367,0,0,1,.065.05l.455.565a3.2,3.2,0,0,1-1.1.827,3.506,3.506,0,0,1-1.46.288,2.823,2.823,0,0,1-1.185-.238,2.524,2.524,0,0,1-.88-.657,2.882,2.882,0,0,1-.547-1,4.028,4.028,0,0,1-.187-1.255,5.011,5.011,0,0,1,.135-1.182,4.413,4.413,0,0,1,.385-1.03,3.925,3.925,0,0,1,.6-.847,3.826,3.826,0,0,1,.775-.64,3.569,3.569,0,0,1,.917-.4,3.74,3.74,0,0,1,1.028-.14,3.312,3.312,0,0,1,.72.072,2.641,2.641,0,0,1,.59.2,2.19,2.19,0,0,1,.475.313,2.673,2.673,0,0,1,.38.408l-.45.54a.546.546,0,0,1-.117.105.3.3,0,0,1-.168.045.311.311,0,0,1-.21-.09,2.752,2.752,0,0,0-.253-.2,1.74,1.74,0,0,0-.395-.2,1.869,1.869,0,0,0-.638-.09,2.21,2.21,0,0,0-.965.212,2.286,2.286,0,0,0-.775.608,2.919,2.919,0,0,0-.517.953,3.916,3.916,0,0,0-.187,1.253,2.975,2.975,0,0,0,.127.9,2.053,2.053,0,0,0,.353.678,1.528,1.528,0,0,0,.535.425A1.551,1.551,0,0,0-20.838,10.98Zm9.875-3.08A4.8,4.8,0,0,1-11.1,9.042a4.312,4.312,0,0,1-.38,1.008,3.981,3.981,0,0,1-.6.84,3.68,3.68,0,0,1-.78.64,3.716,3.716,0,0,1-.937.408,3.885,3.885,0,0,1-1.06.142,3.016,3.016,0,0,1-1.24-.245,2.753,2.753,0,0,1-.937-.675,2.958,2.958,0,0,1-.592-1.015,3.815,3.815,0,0,1-.2-1.27,4.8,4.8,0,0,1,.132-1.143,4.312,4.312,0,0,1,.38-1.008,3.981,3.981,0,0,1,.6-.84,3.744,3.744,0,0,1,.78-.642A3.664,3.664,0,0,1-15,4.832a3.9,3.9,0,0,1,1.065-.142,3.016,3.016,0,0,1,1.24.245,2.727,2.727,0,0,1,.935.675,2.975,2.975,0,0,1,.59,1.017A3.837,3.837,0,0,1-10.963,7.9Zm-1.33.03a3.032,3.032,0,0,0-.123-.89,1.993,1.993,0,0,0-.355-.685,1.578,1.578,0,0,0-.568-.44,1.777,1.777,0,0,0-.755-.155,2.176,2.176,0,0,0-.983.22,2.182,2.182,0,0,0-.757.625,2.973,2.973,0,0,0-.488.975,4.356,4.356,0,0,0-.172,1.265,3.091,3.091,0,0,0,.12.89,1.958,1.958,0,0,0,.35.682,1.548,1.548,0,0,0,.562.435,1.8,1.8,0,0,0,.757.153,2.2,2.2,0,0,0,.99-.22,2.2,2.2,0,0,0,.76-.62,2.917,2.917,0,0,0,.488-.967A4.35,4.35,0,0,0-12.293,7.93Zm5.545,1.18q.045.13.08.265t.07.275q.06-.14.13-.275t.15-.265l2.51-4.13a.506.506,0,0,1,.092-.117.322.322,0,0,1,.1-.063A.419.419,0,0,1-3.5,4.775q.065,0,.15-.005h.985L-3.253,12h-1.14l.58-4.71Q-3.8,7.16-3.768,7T-3.7,6.69l-2.485,4.13a.57.57,0,0,1-.213.21.567.567,0,0,1-.277.07h-.18a.487.487,0,0,1-.263-.07.393.393,0,0,1-.162-.21L-8.773,6.7q0,.155-.013.3t-.022.265L-9.378,12h-1.145l.89-7.23h.975q.085,0,.15.005a.389.389,0,0,1,.115.025.209.209,0,0,1,.085.063.447.447,0,0,1,.065.117Zm6.44.33L-.623,12h-1.29l.885-7.23h2.2a3.36,3.36,0,0,1,1.058.148,1.962,1.962,0,0,1,.727.412,1.64,1.64,0,0,1,.423.628,2.232,2.232,0,0,1,.138.8,3.063,3.063,0,0,1-.183,1.072,2.285,2.285,0,0,1-.547.85,2.544,2.544,0,0,1-.913.56A3.676,3.676,0,0,1,.6,9.44ZM.147,5.77l-.33,2.66h.91a1.731,1.731,0,0,0,.66-.115,1.246,1.246,0,0,0,.465-.322A1.3,1.3,0,0,0,2.125,7.5a2.14,2.14,0,0,0,.088-.63,1.385,1.385,0,0,0-.07-.45.876.876,0,0,0-.215-.347,1,1,0,0,0-.363-.222,1.5,1.5,0,0,0-.517-.08Zm5.1,5.155h2.63L7.757,12H3.827l.89-7.23h1.3Zm8.44-6.155L13.563,5.8h-2.91L10.4,7.86h2.285l-.125.995H10.277l-.26,2.11h2.92L12.807,12H8.587l.89-7.23Zm5.76,0-.135,1.065h-1.98L16.578,12h-1.29l.755-6.165H14.058l.13-1.065Zm4.975,0L24.3,5.8h-2.91l-.25,2.055h2.285l-.125.995H21.013l-.26,2.11h2.92L23.542,12h-4.22l.89-7.23Z" transform="translate(191 25)" fill="#9c3"/>
  </g>
</svg>
