<svg xmlns="http://www.w3.org/2000/svg" xmlns:xlink="http://www.w3.org/1999/xlink" width="30" height="30" viewBox="0 0 30 30">
  <defs>
    <clipPath id="clip-poll">
      <rect width="30" height="30"/>
    </clipPath>
  </defs>
  <g id="poll" clip-path="url(#clip-poll)">
    <g id="poll-2" data-name="poll" transform="translate(3 3.392)">
      <path id="Path_40" data-name="Path 40" d="M20.222,9.16H18.888a1.678,1.678,0,0,0,.028-.277V6.57a1.779,1.779,0,0,0-1.778-1.777H3.5V3.358a.75.75,0,0,0-1.5,0V20.83a.75.75,0,0,0,1.5,0V19.4H14.056a1.78,1.78,0,0,0,1.778-1.777V15.306a1.819,1.819,0,0,0-.028-.278h4.417A1.781,1.781,0,0,0,22,13.25V10.94a1.78,1.78,0,0,0-1.778-1.78ZM17.14,6.293a.278.278,0,0,1,.277.277V8.88a.28.28,0,0,1-.278.28H3.5V6.29H17.14Zm-2.807,9.014v2.312a.278.278,0,0,1-.278.277H3.5V15.028H14.056a.279.279,0,0,1,.277.28ZM20.5,13.25a.278.278,0,0,1-.278.277H3.5V10.66H20.222a.278.278,0,0,1,.278.277Z" fill="#1da1f2"/>
    </g>
  </g>
</svg>
